HW1; putting text
…
Code

socviz::elections_historic |> select(2:7) 

# A tibble: 49 × 6
    year winner                 win_party ec_pct popular_pct popular_margin
   <int> <chr>                  <chr>      <dbl>       <dbl>          <dbl>
 1  1824 John Quincy Adams      D.-R.      0.322       0.309        -0.104 
 2  1828 Andrew Jackson         Dem.       0.682       0.559         0.122 
 3  1832 Andrew Jackson         Dem.       0.766       0.547         0.178 
 4  1836 Martin Van Buren       Dem.       0.578       0.508         0.142 
 5  1840 William Henry Harrison Whig       0.796       0.529         0.0605
 6  1844 James Polk             Dem.       0.618       0.495         0.0145
 7  1848 Zachary Taylor         Whig       0.562       0.473         0.0479
 8  1852 Franklin Pierce        Dem.       0.858       0.508         0.0695
 9  1856 James Buchanan         Dem.       0.588       0.453         0.122 
10  1860 Abraham Lincoln        Rep.       0.594       0.396         0.101 
# ℹ 39 more rows
…
