Lecture 7
…
Code

# n(): to count the number of observations for each group

bigregion_religion <- gss_sm |> 
  select(id, bigregion, religion) |> 
  arrange(bigregion, religion, id) |> 
  group_by(bigregion, religion) |> 
  summarize(n = n()) |> 
  mutate(tot = sum(n) ) |> 
  mutate(pct = 100 * n / tot)

bigregion_religion

# A tibble: 24 × 5
# Groups:   bigregion [4]
   bigregion religion       n   tot    pct
   <fct>     <fct>      <int> <int>  <dbl>
 1 Northeast Protestant   158   488 32.4  
 2 Northeast Catholic     162   488 33.2  
 3 Northeast Jewish        27   488  5.53 
 4 Northeast None         112   488 23.0  
 5 Northeast Other         28   488  5.74 
 6 Northeast <NA>           1   488  0.205
 7 Midwest   Protestant   325   695 46.8  
 8 Midwest   Catholic     172   695 24.7  
 9 Midwest   Jewish         3   695  0.432
10 Midwest   None         157   695 22.6  
# ℹ 14 more rows
…
